{
  // Use IntelliSense to learn about possible attributes.
  // Hover to view descriptions of existing attributes.
  // For more information, visit: https://go.microsoft.com/fwlink/?linkid=830387
  "version": "0.2.0",
  "configurations": [
    {
      "type": "node",
      "request": "launch",
      "name": "Launch Program",
      "program": "${workspaceFolder}\\index.js",
      "args": []
    },
    {
      "type": "node",
      "request": "launch",
      "name": "Jest All",
      "program": "${workspaceFolder}/node_modules/.bin/jest",
      "args": ["--runInBand", "--watchAll=false"],
      "cwd": "${workspaceFolder}",
      "console": "integratedTerminal",
      "internalConsoleOptions": "neverOpen",
      "disableOptimisticBPs": true,
      "windows": {
        "program": "${workspaceFolder}/node_modules/jest/bin/jest"
      }
    },
    {
      "type": "node",
      "request": "launch",
      "name": "Jest Current File",
      "program": "${workspaceFolder}/node_modules/.bin/jest",
      "args": ["--runInBand", "--watchAll=false", "${fileBasenameNoExtension}"],
      "cwd": "${workspaceFolder}",
      "console": "integratedTerminal",
      "internalConsoleOptions": "neverOpen",
      "disableOptimisticBPs": true,
      "windows": {
        "program": "${workspaceFolder}/node_modules/jest/bin/jest"
      }
    }
  ]
}
