[
  {
    "src": "Container/Dockerfile",
    "dest": "Dockerfile"
  },
  {
    "src": "GitLab/container.gitlab-ci.yml",
    "dest": ".gitlab-ci.yml"
  },
  {
    "src": "Renovate/default.renovate.json",
    "dest": ".gitlab/renovate.json"
  }
]
