[
  {
    "src": "Renovate/web-application.renovate.json",
    "dest": ".gitlab/renovate.json"
  },
  {
    "src": "Git/web.gitignore",
    "dest": ".gitignore"
  },
  {
    "src": "Linters/.htmlhintrc",
    "dest": ".htmlhintrc"
  },
  {
    "src": "Linters/.markdownlint.json",
    "dest": ".markdownlint.json"
  },
  {
    "src": "Linters/.stylelintrc.json",
    "dest": ".stylelintrc.json"
  },
  {
    "src": "NPM/web.depcheckrc.json",
    "dest": ".depcheckrc.json"
  },
  {
    "src": "NPM/web.package.json",
    "dest": "package.json"
  },
  {
    "src": "Playwright/playwright.config.js",
    "dest": "playwright.config.js"
  },
  {
    "src": "Playwright/default.pwtest.js",
    "dest": "tests-ui/default.pwtest.js"
  }
]
